{
  "page": 1,
  "per_page": 15,
  "photos": [
    {
      "id": 6143519,
      "width": 4102,
      "height": 6153,
      "url": "https://www.pexels.com/photo/woman-in-white-button-up-shirt-wearing-black-framed-eyeglasses-6143519/",
      "photographer": "C Technical",
      "photographer_url": "https://www.pexels.com/@cotton-technical",
      "photographer_id": 3031835,
      "avg_color": "#C1B3AF",
      "src": {
        "original": "https://images.pexels.com/photos/6143519/pexels-photo-6143519.jpeg",
        "large2x": "https://images.pexels.com/photos/6143519/pexels-photo-6143519.jpeg?auto=compress&cs=tinysrgb&dpr=2&h=650&w=940",
        "large": "https://images.pexels.com/photos/6143519/pexels-photo-6143519.jpeg?auto=compress&cs=tinysrgb&h=650&w=940",
        "medium": "https://images.pexels.com/photos/6143519/pexels-photo-6143519.jpeg?auto=compress&cs=tinysrgb&h=350",
        "small": "https://images.pexels.com/photos/6143519/pexels-photo-6143519.jpeg?auto=compress&cs=tinysrgb&h=130",
        "portrait": "https://images.pexels.com/photos/6143519/pexels-photo-6143519.jpeg?auto=compress&cs=tinysrgb&fit=crop&h=1200&w=800",
        "landscape": "https://images.pexels.com/photos/6143519/pexels-photo-6143519.jpeg?auto=compress&cs=tinysrgb&fit=crop&h=627&w=1200",
        "tiny": "https://images.pexels.com/photos/6143519/pexels-photo-6143519.jpeg?auto=compress&cs=tinysrgb&dpr=1&fit=crop&h=200&w=280"
      },
      "liked": false
    },
    {
      "id": 6139553,
      "width": 4000,
      "height": 6000,
      "url": "https://www.pexels.com/photo/woman-in-black-hat-holding-white-and-black-cassette-tape-6139553/",
      "photographer": "Lisa Fotios",
      "photographer_url": "https://www.pexels.com/@fotios-photos",
      "photographer_id": 26735,
      "avg_color": "#656565",
      "src": {
        "original": "https://images.pexels.com/photos/6139553/pexels-photo-6139553.jpeg",
        "large2x": "https://images.pexels.com/photos/6139553/pexels-photo-6139553.jpeg?auto=compress&cs=tinysrgb&dpr=2&h=650&w=940",
        "large": "https://images.pexels.com/photos/6139553/pexels-photo-6139553.jpeg?auto=compress&cs=tinysrgb&h=650&w=940",
        "medium": "https://images.pexels.com/photos/6139553/pexels-photo-6139553.jpeg?auto=compress&cs=tinysrgb&h=350",
        "small": "https://images.pexels.com/photos/6139553/pexels-photo-6139553.jpeg?auto=compress&cs=tinysrgb&h=130",
        "portrait": "https://images.pexels.com/photos/6139553/pexels-photo-6139553.jpeg?auto=compress&cs=tinysrgb&fit=crop&h=1200&w=800",
        "landscape": "https://images.pexels.com/photos/6139553/pexels-photo-6139553.jpeg?auto=compress&cs=tinysrgb&fit=crop&h=627&w=1200",
        "tiny": "https://images.pexels.com/photos/6139553/pexels-photo-6139553.jpeg?auto=compress&cs=tinysrgb&dpr=1&fit=crop&h=200&w=280"
      },
      "liked": false
    },
    {
      "id": 3420047,
      "width": 4608,
      "height": 3456,
      "url": "https://www.pexels.com/photo/black-metal-train-rail-3420047/",
      "photographer": "rikka ameboshi",
      "photographer_url": "https://www.pexels.com/@rikka",
      "photographer_id": 1648993,
      "avg_color": "#3E4056",
      "src": {
        "original": "https://images.pexels.com/photos/3420047/pexels-photo-3420047.jpeg",
        "large2x": "https://images.pexels.com/photos/3420047/pexels-photo-3420047.jpeg?auto=compress&cs=tinysrgb&dpr=2&h=650&w=940",
        "large": "https://images.pexels.com/photos/3420047/pexels-photo-3420047.jpeg?auto=compress&cs=tinysrgb&h=650&w=940",
        "medium": "https://images.pexels.com/photos/3420047/pexels-photo-3420047.jpeg?auto=compress&cs=tinysrgb&h=350",
        "small": "https://images.pexels.com/photos/3420047/pexels-photo-3420047.jpeg?auto=compress&cs=tinysrgb&h=130",
        "portrait": "https://images.pexels.com/photos/3420047/pexels-photo-3420047.jpeg?auto=compress&cs=tinysrgb&fit=crop&h=1200&w=800",
        "landscape": "https://images.pexels.com/photos/3420047/pexels-photo-3420047.jpeg?auto=compress&cs=tinysrgb&fit=crop&h=627&w=1200",
        "tiny": "https://images.pexels.com/photos/3420047/pexels-photo-3420047.jpeg?auto=compress&cs=tinysrgb&dpr=1&fit=crop&h=200&w=280"
      },
      "liked": false
    },
    {
      "id": 3678323,
      "width": 6000,
      "height": 4000,
      "url": "https://www.pexels.com/photo/blue-jellyfish-in-black-background-3678323/",
      "photographer": "James Lee",
      "photographer_url": "https://www.pexels.com/@james-lee-932763",
      "photographer_id": 932763,
      "avg_color": "#262543",
      "src": {
        "original": "https://images.pexels.com/photos/3678323/pexels-photo-3678323.jpeg",
        "large2x": "https://images.pexels.com/photos/3678323/pexels-photo-3678323.jpeg?auto=compress&cs=tinysrgb&dpr=2&h=650&w=940",
        "large": "https://images.pexels.com/photos/3678323/pexels-photo-3678323.jpeg?auto=compress&cs=tinysrgb&h=650&w=940",
        "medium": "https://images.pexels.com/photos/3678323/pexels-photo-3678323.jpeg?auto=compress&cs=tinysrgb&h=350",
        "small": "https://images.pexels.com/photos/3678323/pexels-photo-3678323.jpeg?auto=compress&cs=tinysrgb&h=130",
        "portrait": "https://images.pexels.com/photos/3678323/pexels-photo-3678323.jpeg?auto=compress&cs=tinysrgb&fit=crop&h=1200&w=800",
        "landscape": "https://images.pexels.com/photos/3678323/pexels-photo-3678323.jpeg?auto=compress&cs=tinysrgb&fit=crop&h=627&w=1200",
        "tiny": "https://images.pexels.com/photos/3678323/pexels-photo-3678323.jpeg?auto=compress&cs=tinysrgb&dpr=1&fit=crop&h=200&w=280"
      },
      "liked": false
    },
    {
      "id": 5461186,
      "width": 2978,
      "height": 3971,
      "url": "https://www.pexels.com/photo/silhouette-of-houses-during-sunset-5461186/",
      "photographer": "Dids",
      "photographer_url": "https://www.pexels.com/@didsss",
      "photographer_id": 447505,
      "avg_color": "#37332F",
      "src": {
        "original": "https://images.pexels.com/photos/5461186/pexels-photo-5461186.jpeg",
        "large2x": "https://images.pexels.com/photos/5461186/pexels-photo-5461186.jpeg?auto=compress&cs=tinysrgb&dpr=2&h=650&w=940",
        "large": "https://images.pexels.com/photos/5461186/pexels-photo-5461186.jpeg?auto=compress&cs=tinysrgb&h=650&w=940",
        "medium": "https://images.pexels.com/photos/5461186/pexels-photo-5461186.jpeg?auto=compress&cs=tinysrgb&h=350",
        "small": "https://images.pexels.com/photos/5461186/pexels-photo-5461186.jpeg?auto=compress&cs=tinysrgb&h=130",
        "portrait": "https://images.pexels.com/photos/5461186/pexels-photo-5461186.jpeg?auto=compress&cs=tinysrgb&fit=crop&h=1200&w=800",
        "landscape": "https://images.pexels.com/photos/5461186/pexels-photo-5461186.jpeg?auto=compress&cs=tinysrgb&fit=crop&h=627&w=1200",
        "tiny": "https://images.pexels.com/photos/5461186/pexels-photo-5461186.jpeg?auto=compress&cs=tinysrgb&dpr=1&fit=crop&h=200&w=280"
      },
      "liked": false
    },
    {
      "id": 5866973,
      "width": 4000,
      "height": 6000,
      "url": "https://www.pexels.com/photo/black-and-white-chandelier-turned-on-during-nighttime-5866973/",
      "photographer": "taakill",
      "photographer_url": "https://www.pexels.com/@taakill",
      "photographer_id": 3640376,
      "avg_color": "#1B1EF",
      "src": {
        "original": "https://images.pexels.com/photos/5866973/pexels-photo-5866973.jpeg",
        "large2x": "https://images.pexels.com/photos/5866973/pexels-photo-5866973.jpeg?auto=compress&cs=tinysrgb&dpr=2&h=650&w=940",
        "large": "https://images.pexels.com/photos/5866973/pexels-photo-5866973.jpeg?auto=compress&cs=tinysrgb&h=650&w=940",
        "medium": "https://images.pexels.com/photos/5866973/pexels-photo-5866973.jpeg?auto=compress&cs=tinysrgb&h=350",
        "small": "https://images.pexels.com/photos/5866973/pexels-photo-5866973.jpeg?auto=compress&cs=tinysrgb&h=130",
        "portrait": "https://images.pexels.com/photos/5866973/pexels-photo-5866973.jpeg?auto=compress&cs=tinysrgb&fit=crop&h=1200&w=800",
        "landscape": "https://images.pexels.com/photos/5866973/pexels-photo-5866973.jpeg?auto=compress&cs=tinysrgb&fit=crop&h=627&w=1200",
        "tiny": "https://images.pexels.com/photos/5866973/pexels-photo-5866973.jpeg?auto=compress&cs=tinysrgb&dpr=1&fit=crop&h=200&w=280"
      },
      "liked": false
    },
    {
      "id": 3415410,
      "width": 3850,
      "height": 4924,
      "url": "https://www.pexels.com/photo/person-in-black-jacket-holding-yellow-umbrella-walking-on-road-during-night-time-3415410/",
      "photographer": "Stephane Navailles",
      "photographer_url": "https://www.pexels.com/@stephane-navailles-1835566",
      "photographer_id": 1835566,
      "avg_color": "#2B1AF",
      "src": {
        "original": "https://images.pexels.com/photos/3415410/pexels-photo-3415410.jpeg",
        "large2x": "https://images.pexels.com/photos/3415410/pexels-photo-3415410.jpeg?auto=compress&cs=tinysrgb&dpr=2&h=650&w=940",
        "large": "https://images.pexels.com/photos/3415410/pexels-photo-3415410.jpeg?auto=compress&cs=tinysrgb&h=650&w=940",
        "medium": "https://images.pexels.com/photos/3415410/pexels-photo-3415410.jpeg?auto=compress&cs=tinysrgb&h=350",
        "small": "https://images.pexels.com/photos/3415410/pexels-photo-3415410.jpeg?auto=compress&cs=tinysrgb&h=130",
        "portrait": "https://images.pexels.com/photos/3415410/pexels-photo-3415410.jpeg?auto=compress&cs=tinysrgb&fit=crop&h=1200&w=800",
        "landscape": "https://images.pexels.com/photos/3415410/pexels-photo-3415410.jpeg?auto=compress&cs=tinysrgb&fit=crop&h=627&w=1200",
        "tiny": "https://images.pexels.com/photos/3415410/pexels-photo-3415410.jpeg?auto=compress&cs=tinysrgb&dpr=1&fit=crop&h=200&w=280"
      },
      "liked": false
    },
    {
      "id": 6087665,
      "width": 4480,
      "height": 6720,
      "url": "https://www.pexels.com/photo/brown-cookie-on-white-table-6087665/",
      "photographer": "KoolShooters",
      "photographer_url": "https://www.pexels.com/@kool-shooters",
      "photographer_id": 3798027,
      "avg_color": "#C3B8AB",
      "src": {
        "original": "https://images.pexels.com/photos/6087665/pexels-photo-6087665.jpeg",
        "large2x": "https://images.pexels.com/photos/6087665/pexels-photo-6087665.jpeg?auto=compress&cs=tinysrgb&dpr=2&h=650&w=940",
        "large": "https://images.pexels.com/photos/6087665/pexels-photo-6087665.jpeg?auto=compress&cs=tinysrgb&h=650&w=940",
        "medium": "https://images.pexels.com/photos/6087665/pexels-photo-6087665.jpeg?auto=compress&cs=tinysrgb&h=350",
        "small": "https://images.pexels.com/photos/6087665/pexels-photo-6087665.jpeg?auto=compress&cs=tinysrgb&h=130",
        "portrait": "https://images.pexels.com/photos/6087665/pexels-photo-6087665.jpeg?auto=compress&cs=tinysrgb&fit=crop&h=1200&w=800",
        "landscape": "https://images.pexels.com/photos/6087665/pexels-photo-6087665.jpeg?auto=compress&cs=tinysrgb&fit=crop&h=627&w=1200",
        "tiny": "https://images.pexels.com/photos/6087665/pexels-photo-6087665.jpeg?auto=compress&cs=tinysrgb&dpr=1&fit=crop&h=200&w=280"
      },
      "liked": false
    },
    {
      "id": 5614691,
      "width": 3448,
      "height": 4592,
      "url": "https://www.pexels.com/photo/full-moon-in-the-sky-5614691/",
      "photographer": "Pat Whelen",
      "photographer_url": "https://www.pexels.com/@pat-whelen-2913248",
      "photographer_id": 2913248,
      "avg_color": "#22440",
      "src": {
        "original": "https://images.pexels.com/photos/5614691/pexels-photo-5614691.jpeg",
        "large2x": "https://images.pexels.com/photos/5614691/pexels-photo-5614691.jpeg?auto=compress&cs=tinysrgb&dpr=2&h=650&w=940",
        "large": "https://images.pexels.com/photos/5614691/pexels-photo-5614691.jpeg?auto=compress&cs=tinysrgb&h=650&w=940",
        "medium": "https://images.pexels.com/photos/5614691/pexels-photo-5614691.jpeg?auto=compress&cs=tinysrgb&h=350",
        "small": "https://images.pexels.com/photos/5614691/pexels-photo-5614691.jpeg?auto=compress&cs=tinysrgb&h=130",
        "portrait": "https://images.pexels.com/photos/5614691/pexels-photo-5614691.jpeg?auto=compress&cs=tinysrgb&fit=crop&h=1200&w=800",
        "landscape": "https://images.pexels.com/photos/5614691/pexels-photo-5614691.jpeg?auto=compress&cs=tinysrgb&fit=crop&h=627&w=1200",
        "tiny": "https://images.pexels.com/photos/5614691/pexels-photo-5614691.jpeg?auto=compress&cs=tinysrgb&dpr=1&fit=crop&h=200&w=280"
      },
      "liked": false
    },
    {
      "id": 5827389,
      "width": 5616,
      "height": 3744,
      "url": "https://www.pexels.com/photo/white-and-blue-printer-paper-5827389/",
      "photographer": "Plato Terentev",
      "photographer_url": "https://www.pexels.com/@plato-terentev-3804555",
      "photographer_id": 3804555,
      "avg_color": "#718AB1",
      "src": {
        "original": "https://images.pexels.com/photos/5827389/pexels-photo-5827389.jpeg",
        "large2x": "https://images.pexels.com/photos/5827389/pexels-photo-5827389.jpeg?auto=compress&cs=tinysrgb&dpr=2&h=650&w=940",
        "large": "https://images.pexels.com/photos/5827389/pexels-photo-5827389.jpeg?auto=compress&cs=tinysrgb&h=650&w=940",
        "medium": "https://images.pexels.com/photos/5827389/pexels-photo-5827389.jpeg?auto=compress&cs=tinysrgb&h=350",
        "small": "https://images.pexels.com/photos/5827389/pexels-photo-5827389.jpeg?auto=compress&cs=tinysrgb&h=130",
        "portrait": "https://images.pexels.com/photos/5827389/pexels-photo-5827389.jpeg?auto=compress&cs=tinysrgb&fit=crop&h=1200&w=800",
        "landscape": "https://images.pexels.com/photos/5827389/pexels-photo-5827389.jpeg?auto=compress&cs=tinysrgb&fit=crop&h=627&w=1200",
        "tiny": "https://images.pexels.com/photos/5827389/pexels-photo-5827389.jpeg?auto=compress&cs=tinysrgb&dpr=1&fit=crop&h=200&w=280"
      },
      "liked": false
    },
    {
      "id": 6113251,
      "width": 3840,
      "height": 5760,
      "url": "https://www.pexels.com/photo/person-in-black-long-sleeve-shirt-holding-white-green-and-blue-ball-6113251/",
      "photographer": "Julia Larson",
      "photographer_url": "https://www.pexels.com/@julia-larson",
      "photographer_id": 6927817,
      "avg_color": "#83706B",
      "src": {
        "original": "https://images.pexels.com/photos/6113251/pexels-photo-6113251.jpeg",
        "large2x": "https://images.pexels.com/photos/6113251/pexels-photo-6113251.jpeg?auto=compress&cs=tinysrgb&dpr=2&h=650&w=940",
        "large": "https://images.pexels.com/photos/6113251/pexels-photo-6113251.jpeg?auto=compress&cs=tinysrgb&h=650&w=940",
        "medium": "https://images.pexels.com/photos/6113251/pexels-photo-6113251.jpeg?auto=compress&cs=tinysrgb&h=350",
        "small": "https://images.pexels.com/photos/6113251/pexels-photo-6113251.jpeg?auto=compress&cs=tinysrgb&h=130",
        "portrait": "https://images.pexels.com/photos/6113251/pexels-photo-6113251.jpeg?auto=compress&cs=tinysrgb&fit=crop&h=1200&w=800",
        "landscape": "https://images.pexels.com/photos/6113251/pexels-photo-6113251.jpeg?auto=compress&cs=tinysrgb&fit=crop&h=627&w=1200",
        "tiny": "https://images.pexels.com/photos/6113251/pexels-photo-6113251.jpeg?auto=compress&cs=tinysrgb&dpr=1&fit=crop&h=200&w=280"
      },
      "liked": false
    },
    {
      "id": 6113297,
      "width": 3840,
      "height": 5760,
      "url": "https://www.pexels.com/photo/woman-in-brown-and-white-stripe-dress-sitting-on-white-couch-6113297/",
      "photographer": "Julia Larson",
      "photographer_url": "https://www.pexels.com/@julia-larson",
      "photographer_id": 6927817,
      "avg_color": "#C4B9AF",
      "src": {
        "original": "https://images.pexels.com/photos/6113297/pexels-photo-6113297.jpeg",
        "large2x": "https://images.pexels.com/photos/6113297/pexels-photo-6113297.jpeg?auto=compress&cs=tinysrgb&dpr=2&h=650&w=940",
        "large": "https://images.pexels.com/photos/6113297/pexels-photo-6113297.jpeg?auto=compress&cs=tinysrgb&h=650&w=940",
        "medium": "https://images.pexels.com/photos/6113297/pexels-photo-6113297.jpeg?auto=compress&cs=tinysrgb&h=350",
        "small": "https://images.pexels.com/photos/6113297/pexels-photo-6113297.jpeg?auto=compress&cs=tinysrgb&h=130",
        "portrait": "https://images.pexels.com/photos/6113297/pexels-photo-6113297.jpeg?auto=compress&cs=tinysrgb&fit=crop&h=1200&w=800",
        "landscape": "https://images.pexels.com/photos/6113297/pexels-photo-6113297.jpeg?auto=compress&cs=tinysrgb&fit=crop&h=627&w=1200",
        "tiny": "https://images.pexels.com/photos/6113297/pexels-photo-6113297.jpeg?auto=compress&cs=tinysrgb&dpr=1&fit=crop&h=200&w=280"
      },
      "liked": false
    },
    {
      "id": 5436925,
      "width": 4272,
      "height": 2848,
      "url": "https://www.pexels.com/photo/white-moth-orchid-in-bloom-5436925/",
      "photographer": "arnaud audoin",
      "photographer_url": "https://www.pexels.com/@arnaud24",
      "photographer_id": 3336608,
      "avg_color": "#2A2929",
      "src": {
        "original": "https://images.pexels.com/photos/5436925/pexels-photo-5436925.jpeg",
        "large2x": "https://images.pexels.com/photos/5436925/pexels-photo-5436925.jpeg?auto=compress&cs=tinysrgb&dpr=2&h=650&w=940",
        "large": "https://images.pexels.com/photos/5436925/pexels-photo-5436925.jpeg?auto=compress&cs=tinysrgb&h=650&w=940",
        "medium": "https://images.pexels.com/photos/5436925/pexels-photo-5436925.jpeg?auto=compress&cs=tinysrgb&h=350",
        "small": "https://images.pexels.com/photos/5436925/pexels-photo-5436925.jpeg?auto=compress&cs=tinysrgb&h=130",
        "portrait": "https://images.pexels.com/photos/5436925/pexels-photo-5436925.jpeg?auto=compress&cs=tinysrgb&fit=crop&h=1200&w=800",
        "landscape": "https://images.pexels.com/photos/5436925/pexels-photo-5436925.jpeg?auto=compress&cs=tinysrgb&fit=crop&h=627&w=1200",
        "tiny": "https://images.pexels.com/photos/5436925/pexels-photo-5436925.jpeg?auto=compress&cs=tinysrgb&dpr=1&fit=crop&h=200&w=280"
      },
      "liked": false
    },
    {
      "id": 5665272,
      "width": 3456,
      "height": 4320,
      "url": "https://www.pexels.com/photo/fire-in-the-cave-during-night-time-5665272/",
      "photographer": "Vova Krasilnikov",
      "photographer_url": "https://www.pexels.com/@vovaflame",
      "photographer_id": 1345109,
      "avg_color": "#AB10",
      "src": {
        "original": "https://images.pexels.com/photos/5665272/pexels-photo-5665272.jpeg",
        "large2x": "https://images.pexels.com/photos/5665272/pexels-photo-5665272.jpeg?auto=compress&cs=tinysrgb&dpr=2&h=650&w=940",
        "large": "https://images.pexels.com/photos/5665272/pexels-photo-5665272.jpeg?auto=compress&cs=tinysrgb&h=650&w=940",
        "medium": "https://images.pexels.com/photos/5665272/pexels-photo-5665272.jpeg?auto=compress&cs=tinysrgb&h=350",
        "small": "https://images.pexels.com/photos/5665272/pexels-photo-5665272.jpeg?auto=compress&cs=tinysrgb&h=130",
        "portrait": "https://images.pexels.com/photos/5665272/pexels-photo-5665272.jpeg?auto=compress&cs=tinysrgb&fit=crop&h=1200&w=800",
        "landscape": "https://images.pexels.com/photos/5665272/pexels-photo-5665272.jpeg?auto=compress&cs=tinysrgb&fit=crop&h=627&w=1200",
        "tiny": "https://images.pexels.com/photos/5665272/pexels-photo-5665272.jpeg?auto=compress&cs=tinysrgb&dpr=1&fit=crop&h=200&w=280"
      },
      "liked": false
    },
    {
      "id": 6061291,
      "width": 5307,
      "height": 7961,
      "url": "https://www.pexels.com/photo/brown-concrete-building-near-body-of-water-6061291/",
      "photographer": "Julia Volk",
      "photographer_url": "https://www.pexels.com/@julia-volk",
      "photographer_id": 3398578,
      "avg_color": "#8A715A",
      "src": {
        "original": "https://images.pexels.com/photos/6061291/pexels-photo-6061291.jpeg",
        "large2x": "https://images.pexels.com/photos/6061291/pexels-photo-6061291.jpeg?auto=compress&cs=tinysrgb&dpr=2&h=650&w=940",
        "large": "https://images.pexels.com/photos/6061291/pexels-photo-6061291.jpeg?auto=compress&cs=tinysrgb&h=650&w=940",
        "medium": "https://images.pexels.com/photos/6061291/pexels-photo-6061291.jpeg?auto=compress&cs=tinysrgb&h=350",
        "small": "https://images.pexels.com/photos/6061291/pexels-photo-6061291.jpeg?auto=compress&cs=tinysrgb&h=130",
        "portrait": "https://images.pexels.com/photos/6061291/pexels-photo-6061291.jpeg?auto=compress&cs=tinysrgb&fit=crop&h=1200&w=800",
        "landscape": "https://images.pexels.com/photos/6061291/pexels-photo-6061291.jpeg?auto=compress&cs=tinysrgb&fit=crop&h=627&w=1200",
        "tiny": "https://images.pexels.com/photos/6061291/pexels-photo-6061291.jpeg?auto=compress&cs=tinysrgb&dpr=1&fit=crop&h=200&w=280"
      },
      "liked": false
    }
  ],
  "total_results": 8000,
  "next_page": "https://api.pexels.com/v1/curated/?page=2&per_page=15"
}